1	游戏-单机游戏-休闲益智	1000	游戏-单机游戏	2000	游戏
2	游戏-单机游戏-体育竞技	1000	游戏-单机游戏	2000	游戏
3	游戏-单机游戏-赛车竞速	1000	游戏-单机游戏	2000	游戏
4	游戏-单机游戏-动作冒险	1000	游戏-单机游戏	2000	游戏
5	游戏-单机游戏-射击游戏	1000	游戏-单机游戏	2000	游戏
6	游戏-单机游戏-战争策略	1000	游戏-单机游戏	2000	游戏
7	游戏-单机游戏-角色扮演	1000	游戏-单机游戏	2000	游戏
8	游戏-单机游戏-模拟经营	1000	游戏-单机游戏	2000	游戏
9	游戏-单机游戏-音乐游戏	1000	游戏-单机游戏	2000	游戏
10	游戏-单机游戏-其他单机	1000	游戏-单机游戏	2000	游戏
11	游戏-棋牌游戏	11	游戏-棋牌游戏	2000	游戏
12	游戏-对战平台	12	游戏-对战平台	2000	游戏
24	游戏-手机游戏-休闲益智	1002	游戏-手机游戏	2000	游戏
25	游戏-手机游戏-体育竞技	1002	游戏-手机游戏	2000	游戏
26	游戏-手机游戏-赛车竞速	1002	游戏-手机游戏	2000	游戏
27	游戏-手机游戏-动作冒险	1002	游戏-手机游戏	2000	游戏
28	游戏-手机游戏-射击游戏	1002	游戏-手机游戏	2000	游戏
29	游戏-手机游戏-战争策略	1002	游戏-手机游戏	2000	游戏
30	游戏-手机游戏-角色扮演	1002	游戏-手机游戏	2000	游戏
31	游戏-手机游戏-模拟经营	1002	游戏-手机游戏	2000	游戏
32	游戏-手机游戏-养成游戏	1002	游戏-手机游戏	2000	游戏
33	游戏-手机游戏-音乐游戏	1002	游戏-手机游戏	2000	游戏
34	游戏-手机游戏-其他	1002	游戏-手机游戏	2000	游戏
35	游戏-网络游戏-2D即时MMORPG	1003	游戏-网络游戏	2000	游戏
36	游戏-网络游戏-2D回合MMORPG	1003	游戏-网络游戏	2000	游戏
37	游戏-网络游戏-3DARPG	1003	游戏-网络游戏	2000	游戏
38	游戏-网络游戏-3D回合MMORPG	1003	游戏-网络游戏	2000	游戏
39	游戏-网络游戏-3D即时MMORPG	1003	游戏-网络游戏	2000	游戏
40	游戏-网络游戏-FPS(第一人称射击)	1003	游戏-网络游戏	2000	游戏
41	游戏-网络游戏-MOBA(多人联机在线竞技)	1003	游戏-网络游戏	2000	游戏
42	游戏-网络游戏-MUG(音乐舞蹈休闲)	1003	游戏-网络游戏	2000	游戏
43	游戏-网络游戏-REC(竞速)	1003	游戏-网络游戏	2000	游戏
44	游戏-网络游戏-SPG(体育竞技)	1003	游戏-网络游戏	2000	游戏
45	游戏-网络游戏-TPS(第三人称射击)	1003	游戏-网络游戏	2000	游戏
46	游戏-网络游戏-其他射击	1003	游戏-网络游戏	2000	游戏
47	游戏-网络游戏-休闲益智	1003	游戏-网络游戏	2000	游戏
48	游戏-网络游戏-横版格斗	1003	游戏-网络游戏	2000	游戏
49	游戏-网络游戏-动作冒险	1003	游戏-网络游戏	2000	游戏
50	游戏-网络游戏-战争策略	1003	游戏-网络游戏	2000	游戏
51	游戏-网络游戏-模拟经营	1003	游戏-网络游戏	2000	游戏
52	游戏-网络游戏-养成游戏	1003	游戏-网络游戏	2000	游戏
53	游戏-网络游戏-RPG其他	1003	游戏-网络游戏	2000	游戏
54	游戏-网络游戏-其他网游	1003	游戏-网络游戏	2000	游戏
55	游戏-网页游戏-休闲益智	1004	游戏-网页游戏	2000	游戏
56	游戏-网页游戏-体育竞技	1004	游戏-网页游戏	2000	游戏
57	游戏-网页游戏-赛车竞速	1004	游戏-网页游戏	2000	游戏
58	游戏-网页游戏-动作冒险	1004	游戏-网页游戏	2000	游戏
59	游戏-网页游戏-射击游戏	1004	游戏-网页游戏	2000	游戏
60	游戏-网页游戏-战争策略	1004	游戏-网页游戏	2000	游戏
61	游戏-网页游戏-模拟经营	1004	游戏-网页游戏	2000	游戏
62	游戏-网页游戏-养成游戏	1004	游戏-网页游戏	2000	游戏
63	游戏-网页游戏-RPG三国	1004	游戏-网页游戏	2000	游戏
64	游戏-网页游戏-RPG仙侠	1004	游戏-网页游戏	2000	游戏
65	游戏-网页游戏-RPG修真	1004	游戏-网页游戏	2000	游戏
66	游戏-网页游戏-RPG军事	1004	游戏-网页游戏	2000	游戏
67	游戏-网页游戏-RPG历史	1004	游戏-网页游戏	2000	游戏
68	游戏-网页游戏-RPG奇幻	1004	游戏-网页游戏	2000	游戏
69	游戏-网页游戏-RPG宠物	1004	游戏-网页游戏	2000	游戏
70	游戏-网页游戏-RPG武侠	1004	游戏-网页游戏	2000	游戏
71	游戏-网页游戏-RPG玄幻	1004	游戏-网页游戏	2000	游戏
72	游戏-网页游戏-RPG神话	1004	游戏-网页游戏	2000	游戏
73	游戏-网页游戏-RPG科幻	1004	游戏-网页游戏	2000	游戏
74	游戏-网页游戏-RPG西游	1004	游戏-网页游戏	2000	游戏
75	游戏-网页游戏-RPG都市	1004	游戏-网页游戏	2000	游戏
76	游戏-网页游戏-RPG魔幻	1004	游戏-网页游戏	2000	游戏
77	游戏-网页游戏-RPG其他	1004	游戏-网页游戏	2000	游戏
78	游戏-网页游戏-其他页游	1004	游戏-网页游戏	2000	游戏
79	网络购物-其他网购	76	网络购物-其他网购	2001	网络购物
80	网络购物-图书音像-图书音像	1005	网络购物-图书音像	2001	网络购物
81	网络购物-家居家装-其他	1006	网络购物-家居家装	2001	网络购物
82	网络购物-家居家装-家具	1006	网络购物-家居家装	2001	网络购物
83	网络购物-家居家装-家居饰品	1006	网络购物-家居家装	2001	网络购物
84	网络购物-家居家装-家庭清洁	1006	网络购物-家居家装	2001	网络购物
85	网络购物-家居家装-家纺	1006	网络购物-家居家装	2001	网络购物
86	网络购物-家居家装-家装建材	1006	网络购物-家居家装	2001	网络购物
87	网络购物-家居家装-餐饮具	1006	网络购物-家居家装	2001	网络购物
88	网络购物-家电办公-五金工具	1007	网络购物-家电办公	2001	网络购物
89	网络购物-家电办公-其他	1007	网络购物-家电办公	2001	网络购物
90	网络购物-家电办公-办公耗材	1007	网络购物-家电办公	2001	网络购物
91	网络购物-家电办公-厨房电器	1007	网络购物-家电办公	2001	网络购物
92	网络购物-家电办公-大家电	1007	网络购物-家电办公	2001	网络购物
93	网络购物-家电办公-影音电器	1007	网络购物-家电办公	2001	网络购物
94	网络购物-家电办公-文化用品	1007	网络购物-家电办公	2001	网络购物
95	网络购物-家电办公-生活电器	1007	网络购物-家电办公	2001	网络购物
96	网络购物-家电办公-节庆礼品	1007	网络购物-家电办公	2001	网络购物
97	网络购物-手机数码-其他	1008	网络购物-手机数码	2001	网络购物
98	网络购物-手机数码-台式电脑	1008	网络购物-手机数码	2001	网络购物
99	网络购物-手机数码-平板	1008	网络购物-手机数码	2001	网络购物
100	网络购物-手机数码-手机	1008	网络购物-手机数码	2001	网络购物
101	网络购物-手机数码-数码配件	1008	网络购物-手机数码	2001	网络购物
102	网络购物-手机数码-电玩	1008	网络购物-手机数码	2001	网络购物
103	网络购物-手机数码-电脑配件	1008	网络购物-手机数码	2001	网络购物
104	网络购物-手机数码-相机	1008	网络购物-手机数码	2001	网络购物
105	网络购物-手机数码-笔记本	1008	网络购物-手机数码	2001	网络购物
106	网络购物-手机数码-网络设备	1008	网络购物-手机数码	2001	网络购物
107	网络购物-服装鞋包-服装	1009	网络购物-服装鞋包	2001	网络购物
108	网络购物-服装鞋包-服饰配件	1009	网络购物-服装鞋包	2001	网络购物
109	网络购物-服装鞋包-箱包	1009	网络购物-服装鞋包	2001	网络购物
110	网络购物-服装鞋包-鞋靴	1009	网络购物-服装鞋包	2001	网络购物
111	网络购物-母婴用品-婴童用品	1010	网络购物-母婴用品	2001	网络购物
112	网络购物-母婴用品-孕产用品	1010	网络购物-母婴用品	2001	网络购物
113	网络购物-母婴用品-童装童鞋	1010	网络购物-母婴用品	2001	网络购物
114	网络购物-汽车用品-品质汽车	1011	网络购物-汽车用品	2001	网络购物
115	网络购物-汽车用品-汽车服务	1011	网络购物-汽车用品	2001	网络购物
116	网络购物-汽车用品-汽车用品	1011	网络购物-汽车用品	2001	网络购物
117	网络购物-珠宝配饰-其他	1012	网络购物-珠宝配饰	2001	网络购物
118	网络购物-珠宝配饰-手表	1012	网络购物-珠宝配饰	2001	网络购物
119	网络购物-珠宝配饰-珠宝首饰	1012	网络购物-珠宝配饰	2001	网络购物
120	网络购物-珠宝配饰-眼镜	1012	网络购物-珠宝配饰	2001	网络购物
121	网络购物-生活服务-买房租房	1013	网络购物-生活服务	2001	网络购物
122	网络购物-生活服务-便民服务	1013	网络购物-生活服务	2001	网络购物
123	网络购物-生活服务-保险理财	1013	网络购物-生活服务	2001	网络购物
124	网络购物-生活服务-其他	1013	网络购物-生活服务	2001	网络购物
125	网络购物-生活服务-吃喝玩乐	1013	网络购物-生活服务	2001	网络购物
126	网络购物-生活服务-商务服务	1013	网络购物-生活服务	2001	网络购物
127	网络购物-生活服务-教育培训	1013	网络购物-生活服务	2001	网络购物
128	网络购物-生活服务-数码维修	1013	网络购物-生活服务	2001	网络购物
129	网络购物-生活服务-游戏服务	1013	网络购物-生活服务	2001	网络购物
130	网络购物-生活服务-票务	1013	网络购物-生活服务	2001	网络购物
131	网络购物-美妆保健-保健医药	1014	网络购物-美妆保健	2001	网络购物
132	网络购物-美妆保健-减肥健身	1014	网络购物-美妆保健	2001	网络购物
133	网络购物-美妆保健-成人用品	1014	网络购物-美妆保健	2001	网络购物
134	网络购物-美妆保健-美妆护理	1014	网络购物-美妆保健	2001	网络购物
135	网络购物-美食特产-休闲零食	1015	网络购物-美食特产	2001	网络购物
136	网络购物-美食特产-保健食品	1015	网络购物-美食特产	2001	网络购物
137	网络购物-美食特产-地方特产	1015	网络购物-美食特产	2001	网络购物
138	网络购物-美食特产-生鲜粮油	1015	网络购物-美食特产	2001	网络购物
139	网络购物-美食特产-酒水饮料	1015	网络购物-美食特产	2001	网络购物
140	网络购物-花鸟文娱-乐器音乐	1016	网络购物-花鸟文娱	2001	网络购物
141	网络购物-花鸟文娱-其他	1016	网络购物-花鸟文娱	2001	网络购物
142	网络购物-花鸟文娱-动漫模玩	1016	网络购物-花鸟文娱	2001	网络购物
143	网络购物-花鸟文娱-宠物用品	1016	网络购物-花鸟文娱	2001	网络购物
144	网络购物-花鸟文娱-收藏鉴赏	1016	网络购物-花鸟文娱	2001	网络购物
145	网络购物-花鸟文娱-花卉园艺	1016	网络购物-花鸟文娱	2001	网络购物
146	网络购物-花鸟文娱-造景设备	1016	网络购物-花鸟文娱	2001	网络购物
147	网络购物-运动户外-户外用品	1017	网络购物-运动户外	2001	网络购物
148	网络购物-运动户外-运动服饰	1017	网络购物-运动户外	2001	网络购物
149	网络购物-运动户外-运动用品	1017	网络购物-运动户外	2001	网络购物
150	休闲娱乐-音乐	150	休闲娱乐-音乐	2002	休闲娱乐
151	休闲娱乐-美女直播	151	休闲娱乐-美女直播	2002	休闲娱乐
152	休闲娱乐-体育直播	152	休闲娱乐-体育直播	2002	休闲娱乐
153	休闲娱乐-游戏直播	153	休闲娱乐-游戏直播	2002	休闲娱乐
154	休闲娱乐-图片	154	休闲娱乐-图片	2002	休闲娱乐
155	休闲娱乐-小说	155	休闲娱乐-小说	2002	休闲娱乐
156	休闲娱乐-星座占卦	156	休闲娱乐-星座占卦	2002	休闲娱乐
157	休闲娱乐-幽默笑话	157	休闲娱乐-幽默笑话	2002	休闲娱乐
158	休闲娱乐-收藏	158	休闲娱乐-收藏	2002	休闲娱乐
159	休闲娱乐-其他	159	休闲娱乐-其他	2002	休闲娱乐
160	影视-电影	160	影视-电影	2003	影视
161	影视-电视	161	影视-电视	2003	影视
162	影视-综艺	162	影视-综艺	2003	影视
163	影视-动漫	163	影视-动漫	2003	影视
164	影视-其他	164	影视-其他	2003	影视
165	IT与数码-手机	165	IT与数码-手机	2004	IT与数码
166	IT与数码-家电	166	IT与数码-家电	2004	IT与数码
167	IT与数码-VR	167	IT与数码-VR	2004	IT与数码
168	IT与数码-智能硬件	168	IT与数码-智能硬件	2004	IT与数码
169	IT与数码-电脑	169	IT与数码-电脑	2004	IT与数码
170	IT与数码-平板	170	IT与数码-平板	2004	IT与数码
171	IT与数码-相机	171	IT与数码-相机	2004	IT与数码
172	IT与数码-邮箱	172	IT与数码-邮箱	2004	IT与数码
173	IT与数码-网盘	173	IT与数码-网盘	2004	IT与数码
174	IT与数码-网站建设	174	IT与数码-网站建设	2004	IT与数码
175	IT与数码-资源下载	175	IT与数码-资源下载	2004	IT与数码
176	IT与数码-网络安全	176	IT与数码-网络安全	2004	IT与数码
177	IT与数码-其他	177	IT与数码-其他	2004	IT与数码
178	金融财经-保险	178	金融财经-保险	2005	金融财经
179	金融财经-债券	179	金融财经-债券	2005	金融财经
180	金融财经-在线支付	180	金融财经-在线支付	2005	金融财经
181	金融财经-基金	181	金融财经-基金	2005	金融财经
182	金融财经-招商	182	金融财经-招商	2005	金融财经
183	金融财经-理财	183	金融财经-理财	2005	金融财经
184	金融财经-股票	184	金融财经-股票	2005	金融财经
185	金融财经-期货	185	金融财经-期货	2005	金融财经
186	金融财经-银行	186	金融财经-银行	2005	金融财经
187	金融财经-黄金	187	金融财经-黄金	2005	金融财经
188	金融财经-原油	188	金融财经-原油	2005	金融财经
189	金融财经-外汇	189	金融财经-外汇	2005	金融财经
190	金融财经-经济	190	金融财经-经济	2005	金融财经
191	金融财经-其他	191	金融财经-其他	2005	金融财经
192	汽车-SUV	192	汽车-SUV	2006	汽车
193	汽车-MPV	193	汽车-MPV	2006	汽车
194	汽车-跑车	194	汽车-跑车	2006	汽车
195	汽车-微面	195	汽车-微面	2006	汽车
196	汽车-皮卡	196	汽车-皮卡	2006	汽车
197	汽车-客车	197	汽车-客车	2006	汽车
198	汽车-货车	198	汽车-货车	2006	汽车
199	汽车-其他	199	汽车-其他	2006	汽车
200	汽车-新能源车	200	汽车-新能源车	2006	汽车
201	汽车-工程车	201	汽车-工程车	2006	汽车
202	汽车-轿车	202	汽车-轿车	2006	汽车
203	新闻媒体-军事	203	新闻媒体-军事	2007	新闻媒体
204	新闻媒体-娱乐	204	新闻媒体-娱乐	2007	新闻媒体
205	新闻媒体-法治	205	新闻媒体-法治	2007	新闻媒体
206	新闻媒体-时政	206	新闻媒体-时政	2007	新闻媒体
207	新闻媒体-社会	207	新闻媒体-社会	2007	新闻媒体
208	新闻媒体-时尚	208	新闻媒体-时尚	2007	新闻媒体
209	新闻媒体-国际	209	新闻媒体-国际	2007	新闻媒体
210	新闻媒体-科技	210	新闻媒体-科技	2007	新闻媒体
211	新闻媒体-能源	211	新闻媒体-能源	2007	新闻媒体
212	新闻媒体-公益	212	新闻媒体-公益	2007	新闻媒体
213	新闻媒体-其他	213	新闻媒体-其他	2007	新闻媒体
214	房产家居-买房	214	房产家居-买房	2008	房产家居
215	房产家居-租房	215	房产家居-租房	2008	房产家居
216	房产家居-家居装修	216	房产家居-家居装修	2008	房产家居
217	房产家居-写字楼	217	房产家居-写字楼	2008	房产家居
218	房产家居-商铺	218	房产家居-商铺	2008	房产家居
219	房产家居-海外置业	219	房产家居-海外置业	2008	房产家居
220	房产家居-其他	220	房产家居-其他	2008	房产家居
221	教育培训-出国留学	221	教育培训-出国留学	2009	教育培训
222	教育培训-图书展馆	222	教育培训-图书展馆	2009	教育培训
223	教育培训-大学	223	教育培训-大学	2009	教育培训
224	教育培训-公务员	224	教育培训-公务员	2009	教育培训
225	教育培训-考研	225	教育培训-考研	2009	教育培训
226	教育培训-高考	226	教育培训-高考	2009	教育培训
227	教育培训-中小学	227	教育培训-中小学	2009	教育培训
228	教育培训-IT培训	228	教育培训-IT培训	2009	教育培训
229	教育培训-资格考试	229	教育培训-资格考试	2009	教育培训
230	教育培训-早教	230	教育培训-早教	2009	教育培训
231	教育培训-其他	231	教育培训-其他	2009	教育培训
232	医疗保健-医院诊所	232	医疗保健-医院诊所	2010	医疗保健
233	医疗保健-美容整形	233	医疗保健-美容整形	2010	医疗保健
234	医疗保健-减肥瘦身	234	医疗保健-减肥瘦身	2010	医疗保健
235	医疗保健-医疗器械	235	医疗保健-医疗器械	2010	医疗保健
236	医疗保健-药品药学	236	医疗保健-药品药学	2010	医疗保健
237	医疗保健-医疗咨询	237	医疗保健-医疗咨询	2010	医疗保健
238	医疗保健-其他	238	医疗保健-其他	2010	医疗保健
239	旅游-酒店	239	旅游-酒店	2011	旅游
240	旅游-出境游	240	旅游-出境游	2011	旅游
241	旅游-国内游	241	旅游-国内游	2011	旅游
242	旅游-飞机票	242	旅游-飞机票	2011	旅游
243	旅游-火车票	243	旅游-火车票	2011	旅游
244	旅游-邮轮	244	旅游-邮轮	2011	旅游
245	旅游-自驾游	245	旅游-自驾游	2011	旅游
246	旅游-亲子游	246	旅游-亲子游	2011	旅游
247	旅游-其他	247	旅游-其他	2011	旅游
248	生活服务-摄影摄像	248	生活服务-摄影摄像	2012	生活服务
249	生活服务-求职招聘	249	生活服务-求职招聘	2012	生活服务
250	生活服务-鲜花礼品	250	生活服务-鲜花礼品	2012	生活服务
251	生活服务-宠物	251	生活服务-宠物	2012	生活服务
252	生活服务-餐饮美食	252	生活服务-餐饮美食	2012	生活服务
253	生活服务-快递物流	253	生活服务-快递物流	2012	生活服务
254	生活服务-法律法规	254	生活服务-法律法规	2012	生活服务
255	生活服务-天气预报	255	生活服务-天气预报	2012	生活服务
256	生活服务-家政礼仪	256	生活服务-家政礼仪	2012	生活服务
257	生活服务-电信服务	257	生活服务-电信服务	2012	生活服务
258	生活服务-福利彩票	258	生活服务-福利彩票	2012	生活服务
259	生活服务-其他	259	生活服务-其他	2012	生活服务
260	体育运动-极限运动	260	体育运动-极限运动	2013	体育运动
261	体育运动-武术搏击	261	体育运动-武术搏击	2013	体育运动
262	体育运动-水上运动	262	体育运动-水上运动	2013	体育运动
263	体育运动-健美健身	263	体育运动-健美健身	2013	体育运动
264	体育运动-气功养生	264	体育运动-气功养生	2013	体育运动
265	体育运动-篮球	265	体育运动-篮球	2013	体育运动
266	体育运动-足球	266	体育运动-足球	2013	体育运动
267	体育运动-排球	267	体育运动-排球	2013	体育运动
268	体育运动-羽毛球	268	体育运动-羽毛球	2013	体育运动
269	体育运动-乒乓球	269	体育运动-乒乓球	2013	体育运动
270	体育运动-网球	270	体育运动-网球	2013	体育运动
271	体育运动-高尔夫球	271	体育运动-高尔夫球	2013	体育运动
272	体育运动-冰球	272	体育运动-冰球	2013	体育运动
273	体育运动-台球	273	体育运动-台球	2013	体育运动
274	体育运动-棒球	274	体育运动-棒球	2013	体育运动
275	体育运动-保龄球	275	体育运动-保龄球	2013	体育运动
276	体育运动-壁球	276	体育运动-壁球	2013	体育运动
277	体育运动-赛会	277	体育运动-赛会	2013	体育运动
278	体育运动-其他	278	体育运动-其他	2013	体育运动
279	聊天交友-相亲约会	279	聊天交友-相亲约会	2014	聊天交友
280	聊天交友-征婚交友	280	聊天交友-征婚交友	2014	聊天交友
281	聊天交友-在线聊天	281	聊天交友-在线聊天	2014	聊天交友
282	聊天交友-其他	282	聊天交友-其他	2014	聊天交友
283	垂直行业-五金模具	283	垂直行业-五金模具	2015	垂直行业
284	垂直行业-交通运输	284	垂直行业-交通运输	2015	垂直行业
285	垂直行业-农林牧渔	285	垂直行业-农林牧渔	2015	垂直行业
286	垂直行业-冶金矿产	286	垂直行业-冶金矿产	2015	垂直行业
287	垂直行业-出版社	287	垂直行业-出版社	2015	垂直行业
288	垂直行业-包装印刷	288	垂直行业-包装印刷	2015	垂直行业
289	垂直行业-化学工业	289	垂直行业-化学工业	2015	垂直行业
290	垂直行业-医疗器械	290	垂直行业-医疗器械	2015	垂直行业
291	垂直行业-商业贸易	291	垂直行业-商业贸易	2015	垂直行业
292	垂直行业-广告营销	292	垂直行业-广告营销	2015	垂直行业
293	垂直行业-建筑建材	293	垂直行业-建筑建材	2015	垂直行业
294	垂直行业-机械仪表	294	垂直行业-机械仪表	2015	垂直行业
295	垂直行业-电子电工	295	垂直行业-电子电工	2015	垂直行业
296	垂直行业-礼品玩具	296	垂直行业-礼品玩具	2015	垂直行业
297	垂直行业-纺织印染	297	垂直行业-纺织印染	2015	垂直行业